2026-01-13 12:32:31.678 +07:00 [INF] Starting LoyaltyWebApp application
2026-01-13 12:32:33.068 +07:00 [INF] LoyaltyWebApp is starting up
2026-01-13 12:43:30.141 +07:00 [INF] Login API response status: "OK"
2026-01-13 12:43:30.144 +07:00 [INF] Login API response content: {"message":"Đăng nhập thành công","data":{"user_id":1134039809002799105,"username":"khachhang_a","user_role":"Customer","customer_id":1134039809066041345}}
2026-01-13 12:43:30.161 +07:00 [INF] Login successful for user: khachhang_a
2026-01-13 12:43:30.228 +07:00 [INF] GetCustomerRewardsWithPagination API response status: "OK"
2026-01-13 12:43:30.229 +07:00 [INF] GetCustomerRewardsWithPagination API response content: {"message":"Lấy danh sách quà thành công","data":[{"reward_Id":"1137433323122720769","reward_Name":"Thẻ nạp điện thoại Vina 100K","description":"Thẻ nạp điện thoại","points_Cost":100,"stock_Quantity":8,"image_Url":"/Uploads/rewards/reward_1137433323122720769_20251231132503.jpg","updated_At":"2026-01-13T05:37:23.975994"}],"page":1,"pageSize":1,"totalCount":8,"totalPages":8,"hasNext":true,"hasPrevious":false}
2026-01-13 12:43:30.235 +07:00 [INF] GetCustomerRewardsWithPagination successful, page: 1, total: 8
2026-01-13 12:44:18.348 +07:00 [INF] GetRedemptionHistory API response status: "OK"
2026-01-13 12:44:18.348 +07:00 [INF] GetRedemptionHistory API response content: {"message":"Lấy lịch sử đổi quà thành công","data":[{"transaction_Id":"1138743509617803265","reward_Id":"1137158563853271041","reward_Name":"Thẻ nạp điện thoại Mobi 100K","description":"Thẻ nạp điện thoại","quantity_Redeemed":1,"points_Spent":100,"redemption_Date":"2026-01-05T04:29:00.173567","transaction_Status":"Completed"},{"transaction_Id":"1138740110342619137","reward_Id":"1136864802507718657","reward_Name":"Voucher Bách Hóa Xanh 50K","description":"Voucher sử dụng tại siêu thị","quantity_Redeemed":1,"points_Spent":50,"redemption_Date":"2026-01-05T04:11:42.784152","transaction_Status":"Completed"},{"transaction_Id":"1137441437644947457","reward_Id":"1136864802507718657","reward_Name":"Voucher Bách Hóa Xanh 50K","description":"Voucher sử dụng tại siêu thị","quantity_Redeemed":1,"points_Spent":50,"redemption_Date":"2025-12-31T14:06:19.338192","transaction_Status":"Completed"},{"transaction_Id":"1134039809204092929","reward_Id":"1134039809135837185","reward_Name":"Voucher Điện Tử 100K","description":"Voucher sử dụng tại siêu thị","quantity_Redeemed":5,"points_Spent":5000,"redemption_Date":"2025-12-19T20:44:44.738579","transaction_Status":"Completed"}],"page":1,"pageSize":100,"totalCount":4,"hasMore":false}
2026-01-13 12:44:18.354 +07:00 [INF] GetRedemptionHistory successful for customer 1134039809066041345, page 1, pageSize 100, count 4
