2026-01-05 11:10:20.757 +07:00 [INF] Starting LoyaltyWebApp application
2026-01-05 11:10:22.740 +07:00 [INF] LoyaltyWebApp is starting up
2026-01-05 11:10:35.913 +07:00 [INF] Login API response status: "OK"
2026-01-05 11:10:35.916 +07:00 [INF] Login API response content: {"message":"Đăng nhập thành công","data":{"user_id":1134039809002635265,"username":"admin_loan","user_role":"Admin","customer_id":null}}
2026-01-05 11:10:35.932 +07:00 [INF] Login successful for user: admin_loan
2026-01-05 11:10:36.031 +07:00 [INF] GetRewardsWithPagination API response status: "OK"
2026-01-05 11:10:36.031 +07:00 [INF] GetRewardsWithPagination API response content: {"message":"Lấy danh sách quà thành công","data":[{"reward_Id":"1137730597178408961","reward_Name":"test2","description":"test2","points_Cost":1,"stock_Quantity":10,"image_Url":null,"is_Active":true,"updated_At":"2026-01-01T14:37:03.840839"}],"page":1,"pageSize":1,"totalCount":11,"totalPages":11,"hasNext":true,"hasPrevious":false}
2026-01-05 11:10:36.041 +07:00 [INF] GetRewardsWithPagination successful, page: 1, total: 11
2026-01-05 11:10:42.515 +07:00 [INF] GetRewardsWithPagination API response status: "OK"
2026-01-05 11:10:42.515 +07:00 [INF] GetRewardsWithPagination API response content: {"message":"Lấy danh sách quà thành công","data":[{"reward_Id":"1137730597178408961","reward_Name":"test2","description":"test2","points_Cost":1,"stock_Quantity":10,"image_Url":null,"is_Active":true,"updated_At":"2026-01-01T14:37:03.840839"}],"page":1,"pageSize":1,"totalCount":11,"totalPages":11,"hasNext":true,"hasPrevious":false}
2026-01-05 11:10:42.516 +07:00 [INF] GetRewardsWithPagination successful, page: 1, total: 11
2026-01-05 11:11:04.730 +07:00 [INF] Login API response status: "OK"
2026-01-05 11:11:04.730 +07:00 [INF] Login API response content: {"message":"Đăng nhập thành công","data":{"user_id":1134039809002799105,"username":"khachhang_a","user_role":"Customer","customer_id":1134039809066041345}}
2026-01-05 11:11:04.732 +07:00 [INF] Login successful for user: khachhang_a
2026-01-05 11:11:04.813 +07:00 [INF] GetCustomerRewardsWithPagination API response status: "OK"
2026-01-05 11:11:04.813 +07:00 [INF] GetCustomerRewardsWithPagination API response content: {"message":"Lấy danh sách quà thành công","data":[{"reward_Id":"1137730597178408961","reward_Name":"test2","description":"test2","points_Cost":1,"stock_Quantity":10,"image_Url":null,"is_Active":null,"updated_At":"2026-01-01T14:37:03.840839"}],"page":1,"pageSize":1,"totalCount":10,"totalPages":10,"hasNext":true,"hasPrevious":false}
2026-01-05 11:11:04.813 +07:00 [INF] GetCustomerRewardsWithPagination successful, page: 1, total: 10
2026-01-05 11:11:13.506 +07:00 [INF] GetRedemptionHistory API response status: "OK"
2026-01-05 11:11:13.506 +07:00 [INF] GetRedemptionHistory API response content: {"message":"Lấy lịch sử đổi quà thành công","data":[{"transaction_Id":"1137441437644947457","reward_Id":"1136864802507718657","reward_Name":"Voucher Bách Hóa Xanh 50K","description":"Voucher sử dụng tại siêu thị","quantity_Redeemed":1,"points_Spent":50,"redemption_Date":"2025-12-31T14:06:19.338192","transaction_Status":"Completed"},{"transaction_Id":"1134039809204092929","reward_Id":"1134039809135837185","reward_Name":"Voucher Điện Tử 100K","description":"Voucher sử dụng tại siêu thị","quantity_Redeemed":5,"points_Spent":5000,"redemption_Date":"2025-12-19T20:44:44.738579","transaction_Status":"Completed"}],"page":1,"pageSize":100,"totalCount":2,"hasMore":false}
2026-01-05 11:11:13.511 +07:00 [INF] GetRedemptionHistory successful for customer 1134039809066041345, page 1, pageSize 100, count 2
2026-01-05 11:11:19.625 +07:00 [INF] GetCustomerRewardsWithPagination API response status: "OK"
2026-01-05 11:11:19.625 +07:00 [INF] GetCustomerRewardsWithPagination API response content: {"message":"Lấy danh sách quà thành công","data":[{"reward_Id":"1137730597178408961","reward_Name":"test2","description":"test2","points_Cost":1,"stock_Quantity":10,"image_Url":null,"is_Active":null,"updated_At":"2026-01-01T14:37:03.840839"}],"page":1,"pageSize":1,"totalCount":10,"totalPages":10,"hasNext":true,"hasPrevious":false}
2026-01-05 11:11:19.625 +07:00 [INF] GetCustomerRewardsWithPagination successful, page: 1, total: 10
2026-01-05 11:11:42.841 +07:00 [INF] GetCustomerRewardsWithPagination API response status: "OK"
2026-01-05 11:11:42.842 +07:00 [INF] GetCustomerRewardsWithPagination API response content: {"message":"Lấy danh sách quà thành công","data":[{"reward_Id":"1136864802507718657","reward_Name":"Voucher Bách Hóa Xanh 50K","description":"Voucher sử dụng tại siêu thị","points_Cost":50,"stock_Quantity":227,"image_Url":"/Uploads/rewards/reward_1136864802507718657_20251231141836.png","is_Active":null,"updated_At":"2026-01-05T04:11:42.784152"}],"page":1,"pageSize":1,"totalCount":10,"totalPages":10,"hasNext":true,"hasPrevious":false}
2026-01-05 11:11:42.842 +07:00 [INF] GetCustomerRewardsWithPagination successful, page: 1, total: 10
2026-01-05 11:11:48.879 +07:00 [INF] GetCustomerRewardsWithPagination API response status: "OK"
2026-01-05 11:11:48.879 +07:00 [INF] GetCustomerRewardsWithPagination API response content: {"message":"Lấy danh sách quà thành công","data":[{"reward_Id":"1136864802507718657","reward_Name":"Voucher Bách Hóa Xanh 50K","description":"Voucher sử dụng tại siêu thị","points_Cost":50,"stock_Quantity":227,"image_Url":"/Uploads/rewards/reward_1136864802507718657_20251231141836.png","is_Active":null,"updated_At":"2026-01-05T04:11:42.784152"}],"page":1,"pageSize":1,"totalCount":10,"totalPages":10,"hasNext":true,"hasPrevious":false}
2026-01-05 11:11:48.880 +07:00 [INF] GetCustomerRewardsWithPagination successful, page: 1, total: 10
2026-01-05 11:11:50.050 +07:00 [INF] GetRedemptionHistory API response status: "OK"
2026-01-05 11:11:50.050 +07:00 [INF] GetRedemptionHistory API response content: {"message":"Lấy lịch sử đổi quà thành công","data":[{"transaction_Id":"1138740110342619137","reward_Id":"1136864802507718657","reward_Name":"Voucher Bách Hóa Xanh 50K","description":"Voucher sử dụng tại siêu thị","quantity_Redeemed":1,"points_Spent":50,"redemption_Date":"2026-01-05T04:11:42.784152","transaction_Status":"Completed"},{"transaction_Id":"1137441437644947457","reward_Id":"1136864802507718657","reward_Name":"Voucher Bách Hóa Xanh 50K","description":"Voucher sử dụng tại siêu thị","quantity_Redeemed":1,"points_Spent":50,"redemption_Date":"2025-12-31T14:06:19.338192","transaction_Status":"Completed"},{"transaction_Id":"1134039809204092929","reward_Id":"1134039809135837185","reward_Name":"Voucher Điện Tử 100K","description":"Voucher sử dụng tại siêu thị","quantity_Redeemed":5,"points_Spent":5000,"redemption_Date":"2025-12-19T20:44:44.738579","transaction_Status":"Completed"}],"page":1,"pageSize":100,"totalCount":3,"hasMore":false}
2026-01-05 11:11:50.050 +07:00 [INF] GetRedemptionHistory successful for customer 1134039809066041345, page 1, pageSize 100, count 3
2026-01-05 11:11:52.881 +07:00 [INF] GetCustomerRewardsWithPagination API response status: "OK"
2026-01-05 11:11:52.881 +07:00 [INF] GetCustomerRewardsWithPagination API response content: {"message":"Lấy danh sách quà thành công","data":[{"reward_Id":"1136864802507718657","reward_Name":"Voucher Bách Hóa Xanh 50K","description":"Voucher sử dụng tại siêu thị","points_Cost":50,"stock_Quantity":227,"image_Url":"/Uploads/rewards/reward_1136864802507718657_20251231141836.png","is_Active":null,"updated_At":"2026-01-05T04:11:42.784152"}],"page":1,"pageSize":1,"totalCount":10,"totalPages":10,"hasNext":true,"hasPrevious":false}
2026-01-05 11:11:52.882 +07:00 [INF] GetCustomerRewardsWithPagination successful, page: 1, total: 10
2026-01-05 11:17:24.922 +07:00 [INF] Login API response status: "Unauthorized"
2026-01-05 11:17:24.923 +07:00 [WRN] Login API failed with status "Unauthorized": Sai tên đăng nhập hoặc mật khẩu
2026-01-05 11:18:01.150 +07:00 [INF] Login API response status: "Unauthorized"
2026-01-05 11:18:01.150 +07:00 [WRN] Login API failed with status "Unauthorized": Sai tên đăng nhập hoặc mật khẩu
2026-01-05 11:18:30.500 +07:00 [INF] Login API response status: "OK"
2026-01-05 11:18:30.500 +07:00 [INF] Login API response content: {"message":"Đăng nhập thành công","data":{"user_id":1134039809002831873,"username":"khachhang_b","user_role":"Customer","customer_id":1134039809066205185}}
2026-01-05 11:18:30.500 +07:00 [INF] Login successful for user: khachhang_b
2026-01-05 11:18:30.552 +07:00 [INF] GetCustomerRewardsWithPagination API response status: "OK"
2026-01-05 11:18:30.553 +07:00 [INF] GetCustomerRewardsWithPagination API response content: {"message":"Lấy danh sách quà thành công","data":[{"reward_Id":"1136864802507718657","reward_Name":"Voucher Bách Hóa Xanh 50K","description":"Voucher sử dụng tại siêu thị","points_Cost":50,"stock_Quantity":227,"image_Url":"/Uploads/rewards/reward_1136864802507718657_20251231141836.png","is_Active":null,"updated_At":"2026-01-05T04:11:42.784152"}],"page":1,"pageSize":1,"totalCount":10,"totalPages":10,"hasNext":true,"hasPrevious":false}
2026-01-05 11:18:30.553 +07:00 [INF] GetCustomerRewardsWithPagination successful, page: 1, total: 10
2026-01-05 11:18:51.641 +07:00 [INF] Login API response status: "OK"
2026-01-05 11:18:51.641 +07:00 [INF] Login API response content: {"message":"Đăng nhập thành công","data":{"user_id":1134039809002635265,"username":"admin_loan","user_role":"Admin","customer_id":null}}
2026-01-05 11:18:51.641 +07:00 [INF] Login successful for user: admin_loan
2026-01-05 11:18:51.668 +07:00 [INF] GetRewardsWithPagination API response status: "OK"
2026-01-05 11:18:51.668 +07:00 [INF] GetRewardsWithPagination API response content: {"message":"Lấy danh sách quà thành công","data":[{"reward_Id":"1136864802507718657","reward_Name":"Voucher Bách Hóa Xanh 50K","description":"Voucher sử dụng tại siêu thị","points_Cost":50,"stock_Quantity":227,"image_Url":"/Uploads/rewards/reward_1136864802507718657_20251231141836.png","is_Active":true,"updated_At":"2026-01-05T04:11:42.784152"}],"page":1,"pageSize":1,"totalCount":11,"totalPages":11,"hasNext":true,"hasPrevious":false}
2026-01-05 11:18:51.668 +07:00 [INF] GetRewardsWithPagination successful, page: 1, total: 11
2026-01-05 11:19:46.329 +07:00 [INF] Starting LoyaltyWebApp application
2026-01-05 11:19:46.773 +07:00 [INF] LoyaltyWebApp is starting up
2026-01-05 11:19:54.059 +07:00 [INF] Login API response status: "OK"
2026-01-05 11:19:54.063 +07:00 [INF] Login API response content: {"message":"Đăng nhập thành công","data":{"user_id":1134039809002635265,"username":"admin_loan","user_role":"Admin","customer_id":null}}
2026-01-05 11:19:54.080 +07:00 [INF] Login successful for user: admin_loan
2026-01-05 11:19:54.148 +07:00 [INF] GetRewardsWithPagination API response status: "OK"
2026-01-05 11:19:54.149 +07:00 [INF] GetRewardsWithPagination API response content: {"message":"Lấy danh sách quà thành công","data":[{"reward_Id":"1136864802507718657","reward_Name":"Voucher Bách Hóa Xanh 50K","description":"Voucher sử dụng tại siêu thị","points_Cost":50,"stock_Quantity":227,"image_Url":"/Uploads/rewards/reward_1136864802507718657_20251231141836.png","is_Active":true,"updated_At":"2026-01-05T04:11:42.784152"}],"page":1,"pageSize":1,"totalCount":11,"totalPages":11,"hasNext":true,"hasPrevious":false}
2026-01-05 11:19:54.156 +07:00 [INF] GetRewardsWithPagination successful, page: 1, total: 11
2026-01-05 11:21:47.908 +07:00 [INF] Login API response status: "OK"
2026-01-05 11:21:47.908 +07:00 [INF] Login API response content: {"message":"Đăng nhập thành công","data":{"user_id":1134039809002831873,"username":"khachhang_b","user_role":"Customer","customer_id":1134039809066205185}}
2026-01-05 11:21:47.909 +07:00 [INF] Login successful for user: khachhang_b
2026-01-05 11:21:47.958 +07:00 [INF] GetCustomerRewardsWithPagination API response status: "OK"
2026-01-05 11:21:47.958 +07:00 [INF] GetCustomerRewardsWithPagination API response content: {"message":"Lấy danh sách quà thành công","data":[{"reward_Id":"1136864802507718657","reward_Name":"Voucher Bách Hóa Xanh 50K","description":"Voucher sử dụng tại siêu thị","points_Cost":50,"stock_Quantity":227,"image_Url":"/Uploads/rewards/reward_1136864802507718657_20251231141836.png","is_Active":null,"updated_At":"2026-01-05T04:11:42.784152"}],"page":1,"pageSize":1,"totalCount":10,"totalPages":10,"hasNext":true,"hasPrevious":false}
2026-01-05 11:21:47.961 +07:00 [INF] GetCustomerRewardsWithPagination successful, page: 1, total: 10
2026-01-05 11:22:50.290 +07:00 [INF] Login API response status: "OK"
2026-01-05 11:22:50.290 +07:00 [INF] Login API response content: {"message":"Đăng nhập thành công","data":{"user_id":1134039809002635265,"username":"admin_loan","user_role":"Admin","customer_id":null}}
2026-01-05 11:22:50.290 +07:00 [INF] Login successful for user: admin_loan
2026-01-05 11:22:50.319 +07:00 [INF] GetRewardsWithPagination API response status: "OK"
2026-01-05 11:22:50.319 +07:00 [INF] GetRewardsWithPagination API response content: {"message":"Lấy danh sách quà thành công","data":[{"reward_Id":"1136864802507718657","reward_Name":"Voucher Bách Hóa Xanh 50K","description":"Voucher sử dụng tại siêu thị","points_Cost":50,"stock_Quantity":227,"image_Url":"/Uploads/rewards/reward_1136864802507718657_20251231141836.png","is_Active":true,"updated_At":"2026-01-05T04:11:42.784152"}],"page":1,"pageSize":1,"totalCount":11,"totalPages":11,"hasNext":true,"hasPrevious":false}
2026-01-05 11:22:50.319 +07:00 [INF] GetRewardsWithPagination successful, page: 1, total: 11
2026-01-05 11:22:54.732 +07:00 [INF] GetRewardsWithPagination API response status: "OK"
2026-01-05 11:22:54.732 +07:00 [INF] GetRewardsWithPagination API response content: {"message":"Lấy danh sách quà thành công","data":[{"reward_Id":"1137730597178408961","reward_Name":"test2","description":"test2","points_Cost":1,"stock_Quantity":10,"image_Url":null,"is_Active":false,"updated_At":"2026-01-05T04:22:54.586318"}],"page":1,"pageSize":1,"totalCount":11,"totalPages":11,"hasNext":true,"hasPrevious":false}
2026-01-05 11:22:54.732 +07:00 [INF] GetRewardsWithPagination successful, page: 1, total: 11
2026-01-05 11:23:02.485 +07:00 [INF] Login API response status: "OK"
2026-01-05 11:23:02.485 +07:00 [INF] Login API response content: {"message":"Đăng nhập thành công","data":{"user_id":1134039809002831873,"username":"khachhang_b","user_role":"Customer","customer_id":1134039809066205185}}
2026-01-05 11:23:02.485 +07:00 [INF] Login successful for user: khachhang_b
2026-01-05 11:23:02.577 +07:00 [INF] GetCustomerRewardsWithPagination API response status: "OK"
2026-01-05 11:23:02.577 +07:00 [INF] GetCustomerRewardsWithPagination API response content: {"message":"Lấy danh sách quà thành công","data":[{"reward_Id":"1136864802507718657","reward_Name":"Voucher Bách Hóa Xanh 50K","description":"Voucher sử dụng tại siêu thị","points_Cost":50,"stock_Quantity":227,"image_Url":"/Uploads/rewards/reward_1136864802507718657_20251231141836.png","is_Active":null,"updated_At":"2026-01-05T04:11:42.784152"}],"page":1,"pageSize":1,"totalCount":9,"totalPages":9,"hasNext":true,"hasPrevious":false}
2026-01-05 11:23:02.577 +07:00 [INF] GetCustomerRewardsWithPagination successful, page: 1, total: 9
2026-01-05 11:23:20.815 +07:00 [INF] Starting LoyaltyWebApp application
2026-01-05 11:23:21.498 +07:00 [INF] LoyaltyWebApp is starting up
2026-01-05 11:23:30.384 +07:00 [INF] Login API response status: "OK"
2026-01-05 11:23:30.387 +07:00 [INF] Login API response content: {"message":"Đăng nhập thành công","data":{"user_id":1134039809002831873,"username":"khachhang_b","user_role":"Customer","customer_id":1134039809066205185}}
2026-01-05 11:23:30.402 +07:00 [INF] Login successful for user: khachhang_b
2026-01-05 11:23:30.506 +07:00 [INF] GetCustomerRewardsWithPagination API response status: "OK"
2026-01-05 11:23:30.506 +07:00 [INF] GetCustomerRewardsWithPagination API response content: {"message":"Lấy danh sách quà thành công","data":[{"reward_Id":"1136864802507718657","reward_Name":"Voucher Bách Hóa Xanh 50K","description":"Voucher sử dụng tại siêu thị","points_Cost":50,"stock_Quantity":227,"image_Url":"/Uploads/rewards/reward_1136864802507718657_20251231141836.png","is_Active":null,"updated_At":"2026-01-05T04:11:42.784152"}],"page":1,"pageSize":1,"totalCount":9,"totalPages":9,"hasNext":true,"hasPrevious":false}
2026-01-05 11:23:30.513 +07:00 [INF] GetCustomerRewardsWithPagination successful, page: 1, total: 9
2026-01-05 11:23:40.194 +07:00 [INF] Login API response status: "OK"
2026-01-05 11:23:40.194 +07:00 [INF] Login API response content: {"message":"Đăng nhập thành công","data":{"user_id":1134039809002799105,"username":"khachhang_a","user_role":"Customer","customer_id":1134039809066041345}}
2026-01-05 11:23:40.196 +07:00 [INF] Login successful for user: khachhang_a
2026-01-05 11:23:40.229 +07:00 [INF] GetCustomerRewardsWithPagination API response status: "OK"
2026-01-05 11:23:40.230 +07:00 [INF] GetCustomerRewardsWithPagination API response content: {"message":"Lấy danh sách quà thành công","data":[{"reward_Id":"1136864802507718657","reward_Name":"Voucher Bách Hóa Xanh 50K","description":"Voucher sử dụng tại siêu thị","points_Cost":50,"stock_Quantity":227,"image_Url":"/Uploads/rewards/reward_1136864802507718657_20251231141836.png","is_Active":null,"updated_At":"2026-01-05T04:11:42.784152"}],"page":1,"pageSize":1,"totalCount":9,"totalPages":9,"hasNext":true,"hasPrevious":false}
2026-01-05 11:23:40.232 +07:00 [INF] GetCustomerRewardsWithPagination successful, page: 1, total: 9
2026-01-05 11:23:49.963 +07:00 [INF] GetRedemptionHistory API response status: "OK"
2026-01-05 11:23:49.963 +07:00 [INF] GetRedemptionHistory API response content: {"message":"Lấy lịch sử đổi quà thành công","data":[{"transaction_Id":"1138740110342619137","reward_Id":"1136864802507718657","reward_Name":"Voucher Bách Hóa Xanh 50K","description":"Voucher sử dụng tại siêu thị","quantity_Redeemed":1,"points_Spent":50,"redemption_Date":"2026-01-05T04:11:42.784152","transaction_Status":"Completed"},{"transaction_Id":"1137441437644947457","reward_Id":"1136864802507718657","reward_Name":"Voucher Bách Hóa Xanh 50K","description":"Voucher sử dụng tại siêu thị","quantity_Redeemed":1,"points_Spent":50,"redemption_Date":"2025-12-31T14:06:19.338192","transaction_Status":"Completed"},{"transaction_Id":"1134039809204092929","reward_Id":"1134039809135837185","reward_Name":"Voucher Điện Tử 100K","description":"Voucher sử dụng tại siêu thị","quantity_Redeemed":5,"points_Spent":5000,"redemption_Date":"2025-12-19T20:44:44.738579","transaction_Status":"Completed"}],"page":1,"pageSize":100,"totalCount":3,"hasMore":false}
2026-01-05 11:23:49.969 +07:00 [INF] GetRedemptionHistory successful for customer 1134039809066041345, page 1, pageSize 100, count 3
2026-01-05 11:26:14.861 +07:00 [INF] Starting LoyaltyWebApp application
2026-01-05 11:26:15.499 +07:00 [INF] LoyaltyWebApp is starting up
2026-01-05 11:26:24.177 +07:00 [INF] Login API response status: "OK"
2026-01-05 11:26:24.180 +07:00 [INF] Login API response content: {"message":"Đăng nhập thành công","data":{"user_id":1134039809002799105,"username":"khachhang_a","user_role":"Customer","customer_id":1134039809066041345}}
2026-01-05 11:26:24.202 +07:00 [INF] Login successful for user: khachhang_a
2026-01-05 11:26:24.328 +07:00 [INF] GetCustomerRewardsWithPagination API response status: "OK"
2026-01-05 11:26:24.329 +07:00 [INF] GetCustomerRewardsWithPagination API response content: {"message":"Lấy danh sách quà thành công","data":[{"reward_Id":"1136864802507718657","reward_Name":"Voucher Bách Hóa Xanh 50K","description":"Voucher sử dụng tại siêu thị","points_Cost":50,"stock_Quantity":227,"image_Url":"/Uploads/rewards/reward_1136864802507718657_20251231141836.png","is_Active":null,"updated_At":"2026-01-05T04:11:42.784152"}],"page":1,"pageSize":1,"totalCount":9,"totalPages":9,"hasNext":true,"hasPrevious":false}
2026-01-05 11:26:24.337 +07:00 [INF] GetCustomerRewardsWithPagination successful, page: 1, total: 9
2026-01-05 11:26:27.226 +07:00 [INF] GetRedemptionHistory API response status: "OK"
2026-01-05 11:26:27.226 +07:00 [INF] GetRedemptionHistory API response content: {"message":"Lấy lịch sử đổi quà thành công","data":[{"transaction_Id":"1138740110342619137","reward_Id":"1136864802507718657","reward_Name":"Voucher Bách Hóa Xanh 50K","description":"Voucher sử dụng tại siêu thị","quantity_Redeemed":1,"points_Spent":50,"redemption_Date":"2026-01-05T04:11:42.784152","transaction_Status":"Completed"},{"transaction_Id":"1137441437644947457","reward_Id":"1136864802507718657","reward_Name":"Voucher Bách Hóa Xanh 50K","description":"Voucher sử dụng tại siêu thị","quantity_Redeemed":1,"points_Spent":50,"redemption_Date":"2025-12-31T14:06:19.338192","transaction_Status":"Completed"},{"transaction_Id":"1134039809204092929","reward_Id":"1134039809135837185","reward_Name":"Voucher Điện Tử 100K","description":"Voucher sử dụng tại siêu thị","quantity_Redeemed":5,"points_Spent":5000,"redemption_Date":"2025-12-19T20:44:44.738579","transaction_Status":"Completed"}],"page":1,"pageSize":100,"totalCount":3,"hasMore":false}
2026-01-05 11:26:27.234 +07:00 [INF] GetRedemptionHistory successful for customer 1134039809066041345, page 1, pageSize 100, count 3
2026-01-05 11:28:19.098 +07:00 [INF] Starting LoyaltyWebApp application
2026-01-05 11:28:19.805 +07:00 [INF] LoyaltyWebApp is starting up
